607 Assignment 5B Dylan Gold
…
Now we need to separate the state of the match and the opponent. We can do this with mutate

player_data <- player_data %>%
  mutate(
    match_result = substring(opponents, 1,1), #Get the first character, this is always the match_result
    opponent = abs(parse_number(opponents)) # Because theres a dash it interprets it as negative, abs to fix
  )

player_data

# A tibble: 448 × 9
   number name    state points rating opponents avg_opponent_rating match_result
    <dbl> <chr>   <chr>  <dbl>  <dbl> <chr>                   <dbl> <chr>       
 1      1 Gary H… ON         6   1794 W-39                    1605. W           
 2      1 Gary H… ON         6   1794 W-21                    1605. W           
 3      1 Gary H… ON         6   1794 W-18                    1605. W           
 4      1 Gary H… ON         6   1794 W-14                    1605. W           
 5      1 Gary H… ON         6   1794 W-7                     1605. W           
 6      1 Gary H… ON         6   1794 D-12                    1605. D           
 7      1 Gary H… ON         6   1794 D-4                     1605. D           
 8      2 Dakshe… MI         6   1553 W-63                    1469. W           
 9      2 Dakshe… MI         6   1553 W-58                    1469. W           
10      2 Dakshe… MI         6   1553 L-4                     1469. L           
# ℹ 438 more rows
# ℹ 1 more variable: opponent <dbl>
…
`summarise()` has grouped output by 'name'. You can override using the
`.groups` argument.

player_scores

# A tibble: 408 × 4
# Groups:   name [64]
   name         expected_total_score actual_total_score total_score_diff
   <chr>                       <dbl>              <dbl>            <dbl>
 1 Aditya Bajaj                 1.95                  6           4.05  
 2 Aditya Bajaj                 1.95                  6           4.05  
 3 Aditya Bajaj                 1.95                  6           4.05  
 4 Aditya Bajaj                 1.95                  6           4.05  
 5 Aditya Bajaj                 1.95                  6           4.05  
 6 Aditya Bajaj                 1.95                  6           4.05  
 7 Aditya Bajaj                 1.95                  6           4.05  
 8 Alan Bui                     3.94                  4           0.0589
 9 Alan Bui                     3.94                  4           0.0589
10 Alan Bui                     3.94                  4           0.0589
# ℹ 398 more rows

We can get the expected score for each match

#Get the expected scores
player_scores <- player_matches %>%
  rowwise() %>%
    mutate(
      expected_score = get_expected_score(number,opponent))
player_scores

# A tibble: 408 × 6
# Rowwise: 
   number name            actual_score rating opponent expected_score
    <dbl> <chr>                  <dbl>  <dbl>    <dbl>          <dbl>
 1      1 Gary Hua                   6   1794       39          0.887
 2      1 Gary Hua                   6   1794       21          0.791
 3      1 Gary Hua                   6   1794       18          0.753
 4      1 Gary Hua                   6   1794       14          0.743
 5      1 Gary Hua                   6   1794        7          0.697
 6      1 Gary Hua                   6   1794       12          0.680
 7      1 Gary Hua                   6   1794        4          0.610
 8      2 Dakshesh Daruri            6   1553       63          0.898
 9      2 Dakshesh Daruri            6   1553       58          0.975
10      2 Dakshesh Daruri            6   1553        4          0.281
# ℹ 398 more rows
…
